{
  "hits": [
    {
      "_source": {
        "postDate": "2016-03-08T09:09:18.267Z",
        "active": true,
        "message": "busy with coding and smoking",
        "user": "spondon",
        "twitterID": 1
      }
    },
    {
      "_source": {
        "postDate": "2016-02-08T09:09:18.267Z",
        "active": false,
        "message": "busy with social media",
        "user": "Rick",
        "twitterID": 121
      }
    },
    {
      "_source": {
        "postDate": "2016-03-05T09:09:18.267Z",
        "active": true,
        "message": "solving elastic search problem",
        "user": "Sneha",
        "twitterID": 134
      }
    },
    {
      "_source": {
        "postDate": "2016-03-07T09:09:18.267Z",
        "active": true,
        "message": "wanted a python meetup",
        "user": "Dev",
        "twitterID": 100
      }
    },
    {
      "_source": {
        "postDate": "2016-03-14T09:09:18.267Z",
        "active": true,
        "message": "startup freak",
        "user": "Sujoy",
        "twitterID": 70
      }
    },
    {
      "_source": {
        "postDate": "2016-03-27T09:09:18.267Z",
        "active": false,
        "message": "Lets go to hard rock cafe",
        "user": "Vikas",
        "twitterID": 50
      }
    },
    {
      "_source": {
        "postDate": "2016-01-07T09:09:18.267Z",
        "active": true,
        "message": "wanted to leave young",
        "user": "Jen",
        "twitterID": 5000
      }
    }
  ]
}
